sim/simulate.log
Vivado Simulator 2018.3
Time resolution is 1 ps
at time    200130 ns PRE  : Bank = ALL
at time    200150 ns AREF : Auto Refresh
at time    200230 ns AREF : Auto Refresh
at time    200310 ns LMR  : Load Mode Register
                            CAS Latency      = 3
                            Burst Length     = 4
                            Burst Type       = Sequential
                            Write Burst Mode = Programmed Burst Length
at time    200410 ns PRE  : Bank = ALL
at time    200430 ns AREF : Auto Refresh
at time    205090 ns ACT  : Bank = 0 Row =    0
at time    205170 ns WRITE: Bank = 0 Row =    0, Col =   0, Data =     3, Dqm = zz00
at time    205190 ns WRITE: Bank = 0 Row =    0, Col =   1, Data =     5, Dqm = zz00
at time    205210 ns WRITE: Bank = 0 Row =    0, Col =   2, Data =     7, Dqm = zz00
at time    205230 ns WRITE: Bank = 0 Row =    0, Col =   3, Data =     9, Dqm = zz00
at time    205250 ns WRITE: Bank = 0 Row =    0, Col =   4, Data =     3, Dqm = zz00
at time    205270 ns WRITE: Bank = 0 Row =    0, Col =   5, Data =     5, Dqm = zz00
at time    205290 ns WRITE: Bank = 0 Row =    0, Col =   6, Data =     7, Dqm = zz00
at time    205310 ns WRITE: Bank = 0 Row =    0, Col =   7, Data =     9, Dqm = zz00
at time    205330 ns WRITE: Bank = 0 Row =    0, Col =   8, Data =     3, Dqm = zz00
at time    205350 ns WRITE: Bank = 0 Row =    0, Col =   9, Data =     5, Dqm = zz00
at time    205370 ns WRITE: Bank = 0 Row =    0, Col =  10, Data =     7, Dqm = zz00
at time    205390 ns WRITE: Bank = 0 Row =    0, Col =  11, Data =     9, Dqm = zz00
at time    205410 ns WRITE: Bank = 0 Row =    0, Col =  12, Data =     3, Dqm = zz00
at time    205430 ns WRITE: Bank = 0 Row =    0, Col =  13, Data =     5, Dqm = zz00
at time    205450 ns WRITE: Bank = 0 Row =    0, Col =  14, Data =     7, Dqm = zz00
at time    205470 ns WRITE: Bank = 0 Row =    0, Col =  15, Data =     9, Dqm = zz00
at time    205490 ns WRITE: Bank = 0 Row =    0, Col =  16, Data =     3, Dqm = zz00
at time    205510 ns WRITE: Bank = 0 Row =    0, Col =  17, Data =     5, Dqm = zz00
at time    205530 ns WRITE: Bank = 0 Row =    0, Col =  18, Data =     7, Dqm = zz00
at time    205550 ns WRITE: Bank = 0 Row =    0, Col =  19, Data =     9, Dqm = zz00
at time    205570 ns WRITE: Bank = 0 Row =    0, Col =  20, Data =     3, Dqm = zz00
at time    205590 ns WRITE: Bank = 0 Row =    0, Col =  21, Data =     5, Dqm = zz00
at time    205610 ns WRITE: Bank = 0 Row =    0, Col =  22, Data =     7, Dqm = zz00
at time    205630 ns WRITE: Bank = 0 Row =    0, Col =  23, Data =     9, Dqm = zz00
at time    205650 ns WRITE: Bank = 0 Row =    0, Col =  24, Data =     3, Dqm = zz00
at time    205670 ns WRITE: Bank = 0 Row =    0, Col =  25, Data =     5, Dqm = zz00
at time    205690 ns WRITE: Bank = 0 Row =    0, Col =  26, Data =     7, Dqm = zz00
at time    205710 ns WRITE: Bank = 0 Row =    0, Col =  27, Data =     9, Dqm = zz00
at time    205730 ns WRITE: Bank = 0 Row =    0, Col =  28, Data =     3, Dqm = zz00
at time    205750 ns WRITE: Bank = 0 Row =    0, Col =  29, Data =     5, Dqm = zz00
at time    205770 ns WRITE: Bank = 0 Row =    0, Col =  30, Data =     7, Dqm = zz00
at time    205790 ns WRITE: Bank = 0 Row =    0, Col =  31, Data =     9, Dqm = zz00
at time    205810 ns WRITE: Bank = 0 Row =    0, Col =  32, Data =     3, Dqm = zz00
at time    205830 ns WRITE: Bank = 0 Row =    0, Col =  33, Data =     5, Dqm = zz00
at time    205850 ns WRITE: Bank = 0 Row =    0, Col =  34, Data =     7, Dqm = zz00
at time    205870 ns WRITE: Bank = 0 Row =    0, Col =  35, Data =     9, Dqm = zz00
at time    205890 ns WRITE: Bank = 0 Row =    0, Col =  36, Data =     3, Dqm = zz00
at time    205910 ns WRITE: Bank = 0 Row =    0, Col =  37, Data =     5, Dqm = zz00
at time    205930 ns WRITE: Bank = 0 Row =    0, Col =  38, Data =     7, Dqm = zz00
at time    205950 ns WRITE: Bank = 0 Row =    0, Col =  39, Data =     9, Dqm = zz00
at time    205970 ns WRITE: Bank = 0 Row =    0, Col =  40, Data =     3, Dqm = zz00
at time    205990 ns WRITE: Bank = 0 Row =    0, Col =  41, Data =     5, Dqm = zz00
at time    206010 ns WRITE: Bank = 0 Row =    0, Col =  42, Data =     7, Dqm = zz00
at time    206030 ns WRITE: Bank = 0 Row =    0, Col =  43, Data =     9, Dqm = zz00
at time    206050 ns WRITE: Bank = 0 Row =    0, Col =  44, Data =     3, Dqm = zz00
at time    206070 ns WRITE: Bank = 0 Row =    0, Col =  45, Data =     5, Dqm = zz00
at time    206090 ns WRITE: Bank = 0 Row =    0, Col =  46, Data =     7, Dqm = zz00
at time    206110 ns WRITE: Bank = 0 Row =    0, Col =  47, Data =     9, Dqm = zz00
at time    206130 ns WRITE: Bank = 0 Row =    0, Col =  48, Data =     3, Dqm = zz00
at time    206150 ns WRITE: Bank = 0 Row =    0, Col =  49, Data =     5, Dqm = zz00
at time    206170 ns WRITE: Bank = 0 Row =    0, Col =  50, Data =     7, Dqm = zz00
at time    206190 ns WRITE: Bank = 0 Row =    0, Col =  51, Data =     9, Dqm = zz00
at time    206210 ns WRITE: Bank = 0 Row =    0, Col =  52, Data =     3, Dqm = zz00
at time    206230 ns WRITE: Bank = 0 Row =    0, Col =  53, Data =     5, Dqm = zz00
at time    206250 ns WRITE: Bank = 0 Row =    0, Col =  54, Data =     7, Dqm = zz00
at time    206270 ns WRITE: Bank = 0 Row =    0, Col =  55, Data =     9, Dqm = zz00
at time    206290 ns WRITE: Bank = 0 Row =    0, Col =  56, Data =     3, Dqm = zz00
at time    206310 ns WRITE: Bank = 0 Row =    0, Col =  57, Data =     5, Dqm = zz00
at time    206330 ns WRITE: Bank = 0 Row =    0, Col =  58, Data =     7, Dqm = zz00
at time    206350 ns WRITE: Bank = 0 Row =    0, Col =  59, Data =     9, Dqm = zz00
at time    206370 ns WRITE: Bank = 0 Row =    0, Col =  60, Data =     3, Dqm = zz00
at time    206390 ns WRITE: Bank = 0 Row =    0, Col =  61, Data =     5, Dqm = zz00
at time    206410 ns WRITE: Bank = 0 Row =    0, Col =  62, Data =     7, Dqm = zz00
at time    206430 ns WRITE: Bank = 0 Row =    0, Col =  63, Data =     9, Dqm = zz00
at time    206450 ns WRITE: Bank = 0 Row =    0, Col =  64, Data =     3, Dqm = zz00
at time    206470 ns WRITE: Bank = 0 Row =    0, Col =  65, Data =     5, Dqm = zz00
at time    206490 ns WRITE: Bank = 0 Row =    0, Col =  66, Data =     7, Dqm = zz00
at time    206510 ns WRITE: Bank = 0 Row =    0, Col =  67, Data =     9, Dqm = zz00
at time    206530 ns WRITE: Bank = 0 Row =    0, Col =  68, Data =     3, Dqm = zz00
at time    206550 ns WRITE: Bank = 0 Row =    0, Col =  69, Data =     5, Dqm = zz00
at time    206570 ns WRITE: Bank = 0 Row =    0, Col =  70, Data =     7, Dqm = zz00
at time    206590 ns WRITE: Bank = 0 Row =    0, Col =  71, Data =     9, Dqm = zz00
at time    206610 ns WRITE: Bank = 0 Row =    0, Col =  72, Data =     3, Dqm = zz00
at time    206630 ns WRITE: Bank = 0 Row =    0, Col =  73, Data =     5, Dqm = zz00
at time    206650 ns WRITE: Bank = 0 Row =    0, Col =  74, Data =     7, Dqm = zz00
at time    206670 ns WRITE: Bank = 0 Row =    0, Col =  75, Data =     9, Dqm = zz00
at time    206690 ns WRITE: Bank = 0 Row =    0, Col =  76, Data =     3, Dqm = zz00
at time    206710 ns WRITE: Bank = 0 Row =    0, Col =  77, Data =     5, Dqm = zz00
at time    206730 ns WRITE: Bank = 0 Row =    0, Col =  78, Data =     7, Dqm = zz00
at time    206750 ns WRITE: Bank = 0 Row =    0, Col =  79, Data =     9, Dqm = zz00
at time    206770 ns WRITE: Bank = 0 Row =    0, Col =  80, Data =     3, Dqm = zz00
at time    206790 ns WRITE: Bank = 0 Row =    0, Col =  81, Data =     5, Dqm = zz00
at time    206810 ns WRITE: Bank = 0 Row =    0, Col =  82, Data =     7, Dqm = zz00
at time    206830 ns WRITE: Bank = 0 Row =    0, Col =  83, Data =     9, Dqm = zz00
at time    206850 ns WRITE: Bank = 0 Row =    0, Col =  84, Data =     3, Dqm = zz00
at time    206870 ns WRITE: Bank = 0 Row =    0, Col =  85, Data =     5, Dqm = zz00
at time    206890 ns WRITE: Bank = 0 Row =    0, Col =  86, Data =     7, Dqm = zz00
at time    206910 ns WRITE: Bank = 0 Row =    0, Col =  87, Data =     9, Dqm = zz00
at time    206930 ns WRITE: Bank = 0 Row =    0, Col =  88, Data =     3, Dqm = zz00
at time    206950 ns WRITE: Bank = 0 Row =    0, Col =  89, Data =     5, Dqm = zz00
at time    206970 ns WRITE: Bank = 0 Row =    0, Col =  90, Data =     7, Dqm = zz00
at time    206990 ns WRITE: Bank = 0 Row =    0, Col =  91, Data =     9, Dqm = zz00
at time    207010 ns WRITE: Bank = 0 Row =    0, Col =  92, Data =     3, Dqm = zz00
at time    207030 ns WRITE: Bank = 0 Row =    0, Col =  93, Data =     5, Dqm = zz00
at time    207050 ns WRITE: Bank = 0 Row =    0, Col =  94, Data =     7, Dqm = zz00
at time    207070 ns WRITE: Bank = 0 Row =    0, Col =  95, Data =     9, Dqm = zz00
at time    207090 ns WRITE: Bank = 0 Row =    0, Col =  96, Data =     3, Dqm = zz00
at time    207110 ns WRITE: Bank = 0 Row =    0, Col =  97, Data =     5, Dqm = zz00
at time    207130 ns WRITE: Bank = 0 Row =    0, Col =  98, Data =     7, Dqm = zz00
at time    207150 ns WRITE: Bank = 0 Row =    0, Col =  99, Data =     9, Dqm = zz00
at time    207170 ns WRITE: Bank = 0 Row =    0, Col = 100, Data =     3, Dqm = zz00
at time    207190 ns WRITE: Bank = 0 Row =    0, Col = 101, Data =     5, Dqm = zz00
at time    207210 ns WRITE: Bank = 0 Row =    0, Col = 102, Data =     7, Dqm = zz00
at time    207230 ns WRITE: Bank = 0 Row =    0, Col = 103, Data =     9, Dqm = zz00
at time    207250 ns WRITE: Bank = 0 Row =    0, Col = 104, Data =     3, Dqm = zz00
at time    207270 ns WRITE: Bank = 0 Row =    0, Col = 105, Data =     5, Dqm = zz00
at time    207290 ns WRITE: Bank = 0 Row =    0, Col = 106, Data =     7, Dqm = zz00
at time    207310 ns WRITE: Bank = 0 Row =    0, Col = 107, Data =     9, Dqm = zz00
at time    207330 ns WRITE: Bank = 0 Row =    0, Col = 108, Data =     3, Dqm = zz00
at time    207350 ns WRITE: Bank = 0 Row =    0, Col = 109, Data =     5, Dqm = zz00
at time    207370 ns WRITE: Bank = 0 Row =    0, Col = 110, Data =     7, Dqm = zz00
at time    207390 ns WRITE: Bank = 0 Row =    0, Col = 111, Data =     9, Dqm = zz00
at time    207410 ns WRITE: Bank = 0 Row =    0, Col = 112, Data =     3, Dqm = zz00
at time    207430 ns WRITE: Bank = 0 Row =    0, Col = 113, Data =     5, Dqm = zz00
at time    207450 ns WRITE: Bank = 0 Row =    0, Col = 114, Data =     7, Dqm = zz00
at time    207470 ns WRITE: Bank = 0 Row =    0, Col = 115, Data =     9, Dqm = zz00
at time    207490 ns WRITE: Bank = 0 Row =    0, Col = 116, Data =     3, Dqm = zz00
at time    207510 ns WRITE: Bank = 0 Row =    0, Col = 117, Data =     5, Dqm = zz00
at time    207530 ns WRITE: Bank = 0 Row =    0, Col = 118, Data =     7, Dqm = zz00
at time    207550 ns WRITE: Bank = 0 Row =    0, Col = 119, Data =     9, Dqm = zz00
at time    207570 ns WRITE: Bank = 0 Row =    0, Col = 120, Data =     3, Dqm = zz00
at time    207590 ns WRITE: Bank = 0 Row =    0, Col = 121, Data =     5, Dqm = zz00
at time    207610 ns WRITE: Bank = 0 Row =    0, Col = 122, Data =     7, Dqm = zz00
at time    207630 ns WRITE: Bank = 0 Row =    0, Col = 123, Data =     9, Dqm = zz00
at time    207650 ns WRITE: Bank = 0 Row =    0, Col = 124, Data =     3, Dqm = zz00
at time    207670 ns WRITE: Bank = 0 Row =    0, Col = 125, Data =     5, Dqm = zz00
at time    207690 ns WRITE: Bank = 0 Row =    0, Col = 126, Data =     7, Dqm = zz00
at time    207710 ns WRITE: Bank = 0 Row =    0, Col = 127, Data =     9, Dqm = zz00
at time    207730 ns WRITE: Bank = 0 Row =    0, Col = 128, Data =     3, Dqm = zz00
at time    207750 ns WRITE: Bank = 0 Row =    0, Col = 129, Data =     5, Dqm = zz00
at time    207770 ns WRITE: Bank = 0 Row =    0, Col = 130, Data =     7, Dqm = zz00
at time    207790 ns WRITE: Bank = 0 Row =    0, Col = 131, Data =     9, Dqm = zz00
at time    207810 ns WRITE: Bank = 0 Row =    0, Col = 132, Data =     3, Dqm = zz00
at time    207830 ns WRITE: Bank = 0 Row =    0, Col = 133, Data =     5, Dqm = zz00
at time    207850 ns WRITE: Bank = 0 Row =    0, Col = 134, Data =     7, Dqm = zz00
at time    207870 ns WRITE: Bank = 0 Row =    0, Col = 135, Data =     9, Dqm = zz00
at time    207890 ns WRITE: Bank = 0 Row =    0, Col = 136, Data =     3, Dqm = zz00
at time    207910 ns WRITE: Bank = 0 Row =    0, Col = 137, Data =     5, Dqm = zz00
at time    207930 ns WRITE: Bank = 0 Row =    0, Col = 138, Data =     7, Dqm = zz00
at time    207950 ns WRITE: Bank = 0 Row =    0, Col = 139, Data =     9, Dqm = zz00
at time    207970 ns WRITE: Bank = 0 Row =    0, Col = 140, Data =     3, Dqm = zz00
at time    207990 ns WRITE: Bank = 0 Row =    0, Col = 141, Data =     5, Dqm = zz00
at time    208010 ns WRITE: Bank = 0 Row =    0, Col = 142, Data =     7, Dqm = zz00
at time    208030 ns WRITE: Bank = 0 Row =    0, Col = 143, Data =     9, Dqm = zz00
at time    208050 ns WRITE: Bank = 0 Row =    0, Col = 144, Data =     3, Dqm = zz00
at time    208070 ns WRITE: Bank = 0 Row =    0, Col = 145, Data =     5, Dqm = zz00
at time    208090 ns WRITE: Bank = 0 Row =    0, Col = 146, Data =     7, Dqm = zz00
at time    208110 ns WRITE: Bank = 0 Row =    0, Col = 147, Data =     9, Dqm = zz00
at time    208130 ns WRITE: Bank = 0 Row =    0, Col = 148, Data =     3, Dqm = zz00
at time    208150 ns WRITE: Bank = 0 Row =    0, Col = 149, Data =     5, Dqm = zz00
at time    208170 ns WRITE: Bank = 0 Row =    0, Col = 150, Data =     7, Dqm = zz00
at time    208190 ns WRITE: Bank = 0 Row =    0, Col = 151, Data =     9, Dqm = zz00
at time    208210 ns WRITE: Bank = 0 Row =    0, Col = 152, Data =     3, Dqm = zz00
at time    208230 ns WRITE: Bank = 0 Row =    0, Col = 153, Data =     5, Dqm = zz00
at time    208250 ns WRITE: Bank = 0 Row =    0, Col = 154, Data =     7, Dqm = zz00
at time    208270 ns WRITE: Bank = 0 Row =    0, Col = 155, Data =     9, Dqm = zz00
at time    208290 ns WRITE: Bank = 0 Row =    0, Col = 156, Data =     3, Dqm = zz00
at time    208310 ns WRITE: Bank = 0 Row =    0, Col = 157, Data =     5, Dqm = zz00
at time    208330 ns WRITE: Bank = 0 Row =    0, Col = 158, Data =     7, Dqm = zz00
at time    208350 ns WRITE: Bank = 0 Row =    0, Col = 159, Data =     9, Dqm = zz00
at time    208370 ns WRITE: Bank = 0 Row =    0, Col = 160, Data =     3, Dqm = zz00
at time    208390 ns WRITE: Bank = 0 Row =    0, Col = 161, Data =     5, Dqm = zz00
at time    208410 ns WRITE: Bank = 0 Row =    0, Col = 162, Data =     7, Dqm = zz00
at time    208430 ns WRITE: Bank = 0 Row =    0, Col = 163, Data =     9, Dqm = zz00
at time    208450 ns WRITE: Bank = 0 Row =    0, Col = 164, Data =     3, Dqm = zz00
at time    208470 ns WRITE: Bank = 0 Row =    0, Col = 165, Data =     5, Dqm = zz00
at time    208490 ns WRITE: Bank = 0 Row =    0, Col = 166, Data =     7, Dqm = zz00
at time    208510 ns WRITE: Bank = 0 Row =    0, Col = 167, Data =     9, Dqm = zz00
at time    208530 ns WRITE: Bank = 0 Row =    0, Col = 168, Data =     3, Dqm = zz00
at time    208550 ns WRITE: Bank = 0 Row =    0, Col = 169, Data =     5, Dqm = zz00
at time    208570 ns WRITE: Bank = 0 Row =    0, Col = 170, Data =     7, Dqm = zz00
at time    208590 ns WRITE: Bank = 0 Row =    0, Col = 171, Data =     9, Dqm = zz00
at time    208610 ns WRITE: Bank = 0 Row =    0, Col = 172, Data =     3, Dqm = zz00
at time    208630 ns WRITE: Bank = 0 Row =    0, Col = 173, Data =     5, Dqm = zz00
at time    208650 ns WRITE: Bank = 0 Row =    0, Col = 174, Data =     7, Dqm = zz00
at time    208670 ns WRITE: Bank = 0 Row =    0, Col = 175, Data =     9, Dqm = zz00
at time    208690 ns WRITE: Bank = 0 Row =    0, Col = 176, Data =     3, Dqm = zz00
at time    208710 ns WRITE: Bank = 0 Row =    0, Col = 177, Data =     5, Dqm = zz00
at time    208730 ns WRITE: Bank = 0 Row =    0, Col = 178, Data =     7, Dqm = zz00
at time    208750 ns WRITE: Bank = 0 Row =    0, Col = 179, Data =     9, Dqm = zz00
at time    208770 ns WRITE: Bank = 0 Row =    0, Col = 180, Data =     3, Dqm = zz00
at time    208790 ns WRITE: Bank = 0 Row =    0, Col = 181, Data =     5, Dqm = zz00
at time    208810 ns WRITE: Bank = 0 Row =    0, Col = 182, Data =     7, Dqm = zz00
at time    208830 ns WRITE: Bank = 0 Row =    0, Col = 183, Data =     9, Dqm = zz00
at time    208850 ns WRITE: Bank = 0 Row =    0, Col = 184, Data =     3, Dqm = zz00
at time    208870 ns WRITE: Bank = 0 Row =    0, Col = 185, Data =     5, Dqm = zz00
at time    208890 ns WRITE: Bank = 0 Row =    0, Col = 186, Data =     7, Dqm = zz00
at time    208910 ns WRITE: Bank = 0 Row =    0, Col = 187, Data =     9, Dqm = zz00
at time    208930 ns WRITE: Bank = 0 Row =    0, Col = 188, Data =     3, Dqm = zz00
at time    208950 ns WRITE: Bank = 0 Row =    0, Col = 189, Data =     5, Dqm = zz00
at time    208970 ns WRITE: Bank = 0 Row =    0, Col = 190, Data =     7, Dqm = zz00
at time    208990 ns WRITE: Bank = 0 Row =    0, Col = 191, Data =     9, Dqm = zz00
at time    209010 ns WRITE: Bank = 0 Row =    0, Col = 192, Data =     3, Dqm = zz00
at time    209030 ns WRITE: Bank = 0 Row =    0, Col = 193, Data =     5, Dqm = zz00
at time    209050 ns WRITE: Bank = 0 Row =    0, Col = 194, Data =     7, Dqm = zz00
at time    209070 ns WRITE: Bank = 0 Row =    0, Col = 195, Data =     9, Dqm = zz00
at time    209090 ns WRITE: Bank = 0 Row =    0, Col = 196, Data =     3, Dqm = zz00
at time    209110 ns WRITE: Bank = 0 Row =    0, Col = 197, Data =     5, Dqm = zz00
at time    209130 ns WRITE: Bank = 0 Row =    0, Col = 198, Data =     7, Dqm = zz00
at time    209150 ns WRITE: Bank = 0 Row =    0, Col = 199, Data =     9, Dqm = zz00
at time    209170 ns WRITE: Bank = 0 Row =    0, Col = 200, Data =     3, Dqm = zz00
at time    209190 ns WRITE: Bank = 0 Row =    0, Col = 201, Data =     5, Dqm = zz00
at time    209210 ns WRITE: Bank = 0 Row =    0, Col = 202, Data =     7, Dqm = zz00
at time    209230 ns WRITE: Bank = 0 Row =    0, Col = 203, Data =     9, Dqm = zz00
at time    209250 ns WRITE: Bank = 0 Row =    0, Col = 204, Data =     3, Dqm = zz00
at time    209270 ns WRITE: Bank = 0 Row =    0, Col = 205, Data =     5, Dqm = zz00
at time    209290 ns WRITE: Bank = 0 Row =    0, Col = 206, Data =     7, Dqm = zz00
at time    209310 ns WRITE: Bank = 0 Row =    0, Col = 207, Data =     9, Dqm = zz00
at time    209330 ns WRITE: Bank = 0 Row =    0, Col = 208, Data =     3, Dqm = zz00
at time    209350 ns WRITE: Bank = 0 Row =    0, Col = 209, Data =     5, Dqm = zz00
at time    209370 ns WRITE: Bank = 0 Row =    0, Col = 210, Data =     7, Dqm = zz00
at time    209390 ns WRITE: Bank = 0 Row =    0, Col = 211, Data =     9, Dqm = zz00
at time    209410 ns WRITE: Bank = 0 Row =    0, Col = 212, Data =     3, Dqm = zz00
at time    209430 ns WRITE: Bank = 0 Row =    0, Col = 213, Data =     5, Dqm = zz00
at time    209450 ns WRITE: Bank = 0 Row =    0, Col = 214, Data =     7, Dqm = zz00
at time    209470 ns WRITE: Bank = 0 Row =    0, Col = 215, Data =     9, Dqm = zz00
at time    209490 ns WRITE: Bank = 0 Row =    0, Col = 216, Data =     3, Dqm = zz00
at time    209510 ns WRITE: Bank = 0 Row =    0, Col = 217, Data =     5, Dqm = zz00
at time    209530 ns WRITE: Bank = 0 Row =    0, Col = 218, Data =     7, Dqm = zz00
at time    209550 ns WRITE: Bank = 0 Row =    0, Col = 219, Data =     9, Dqm = zz00
at time    209570 ns WRITE: Bank = 0 Row =    0, Col = 220, Data =     3, Dqm = zz00
at time    209590 ns WRITE: Bank = 0 Row =    0, Col = 221, Data =     5, Dqm = zz00
at time    209610 ns WRITE: Bank = 0 Row =    0, Col = 222, Data =     7, Dqm = zz00
at time    209630 ns WRITE: Bank = 0 Row =    0, Col = 223, Data =     9, Dqm = zz00
at time    209650 ns WRITE: Bank = 0 Row =    0, Col = 224, Data =     3, Dqm = zz00
at time    209670 ns WRITE: Bank = 0 Row =    0, Col = 225, Data =     5, Dqm = zz00
at time    209690 ns WRITE: Bank = 0 Row =    0, Col = 226, Data =     7, Dqm = zz00
at time    209710 ns WRITE: Bank = 0 Row =    0, Col = 227, Data =     9, Dqm = zz00
at time    209730 ns WRITE: Bank = 0 Row =    0, Col = 228, Data =     3, Dqm = zz00
at time    209750 ns WRITE: Bank = 0 Row =    0, Col = 229, Data =     5, Dqm = zz00
at time    209770 ns WRITE: Bank = 0 Row =    0, Col = 230, Data =     7, Dqm = zz00
at time    209790 ns WRITE: Bank = 0 Row =    0, Col = 231, Data =     9, Dqm = zz00
at time    209810 ns WRITE: Bank = 0 Row =    0, Col = 232, Data =     3, Dqm = zz00
at time    209830 ns WRITE: Bank = 0 Row =    0, Col = 233, Data =     5, Dqm = zz00
at time    209850 ns WRITE: Bank = 0 Row =    0, Col = 234, Data =     7, Dqm = zz00
at time    209870 ns WRITE: Bank = 0 Row =    0, Col = 235, Data =     9, Dqm = zz00
at time    209890 ns WRITE: Bank = 0 Row =    0, Col = 236, Data =     3, Dqm = zz00
at time    209910 ns WRITE: Bank = 0 Row =    0, Col = 237, Data =     5, Dqm = zz00
at time    209930 ns WRITE: Bank = 0 Row =    0, Col = 238, Data =     7, Dqm = zz00
at time    209950 ns WRITE: Bank = 0 Row =    0, Col = 239, Data =     9, Dqm = zz00
at time    209970 ns WRITE: Bank = 0 Row =    0, Col = 240, Data =     3, Dqm = zz00
at time    209990 ns WRITE: Bank = 0 Row =    0, Col = 241, Data =     5, Dqm = zz00
at time    210010 ns WRITE: Bank = 0 Row =    0, Col = 242, Data =     7, Dqm = zz00
at time    210030 ns WRITE: Bank = 0 Row =    0, Col = 243, Data =     9, Dqm = zz00
at time    210050 ns WRITE: Bank = 0 Row =    0, Col = 244, Data =     3, Dqm = zz00
at time    210070 ns WRITE: Bank = 0 Row =    0, Col = 245, Data =     5, Dqm = zz00
at time    210090 ns WRITE: Bank = 0 Row =    0, Col = 246, Data =     7, Dqm = zz00
at time    210110 ns WRITE: Bank = 0 Row =    0, Col = 247, Data =     9, Dqm = zz00
at time    210130 ns WRITE: Bank = 0 Row =    0, Col = 248, Data =     3, Dqm = zz00
at time    210150 ns WRITE: Bank = 0 Row =    0, Col = 249, Data =     5, Dqm = zz00
at time    210170 ns WRITE: Bank = 0 Row =    0, Col = 250, Data =     7, Dqm = zz00
at time    210190 ns WRITE: Bank = 0 Row =    0, Col = 251, Data =     9, Dqm = zz00
at time    210310 ns PRE  : Bank = ALL
at time    210330 ns AREF : Auto Refresh
at time    210410 ns ACT  : Bank = 0 Row =    0
at time    210490 ns WRITE: Bank = 0 Row =    0, Col = 252, Data =     3, Dqm = zz00
at time    210510 ns WRITE: Bank = 0 Row =    0, Col = 253, Data =     5, Dqm = zz00
at time    210530 ns WRITE: Bank = 0 Row =    0, Col = 254, Data =     7, Dqm = zz00
at time    210550 ns WRITE: Bank = 0 Row =    0, Col = 255, Data =     9, Dqm = zz00
at time    210570 ns WRITE: Bank = 0 Row =    0, Col = 256, Data =     3, Dqm = zz00
at time    210590 ns WRITE: Bank = 0 Row =    0, Col = 257, Data =     5, Dqm = zz00
at time    210610 ns WRITE: Bank = 0 Row =    0, Col = 258, Data =     7, Dqm = zz00
at time    210630 ns WRITE: Bank = 0 Row =    0, Col = 259, Data =     9, Dqm = zz00
at time    210650 ns WRITE: Bank = 0 Row =    0, Col = 260, Data =     3, Dqm = zz00
at time    210670 ns WRITE: Bank = 0 Row =    0, Col = 261, Data =     5, Dqm = zz00
at time    210690 ns WRITE: Bank = 0 Row =    0, Col = 262, Data =     7, Dqm = zz00
at time    210710 ns WRITE: Bank = 0 Row =    0, Col = 263, Data =     9, Dqm = zz00
at time    210730 ns WRITE: Bank = 0 Row =    0, Col = 264, Data =     3, Dqm = zz00
at time    210750 ns WRITE: Bank = 0 Row =    0, Col = 265, Data =     5, Dqm = zz00
at time    210770 ns WRITE: Bank = 0 Row =    0, Col = 266, Data =     7, Dqm = zz00
at time    210790 ns WRITE: Bank = 0 Row =    0, Col = 267, Data =     9, Dqm = zz00
at time    210810 ns WRITE: Bank = 0 Row =    0, Col = 268, Data =     3, Dqm = zz00
at time    210830 ns WRITE: Bank = 0 Row =    0, Col = 269, Data =     5, Dqm = zz00
at time    210850 ns WRITE: Bank = 0 Row =    0, Col = 270, Data =     7, Dqm = zz00
at time    210870 ns WRITE: Bank = 0 Row =    0, Col = 271, Data =     9, Dqm = zz00
at time    210890 ns WRITE: Bank = 0 Row =    0, Col = 272, Data =     3, Dqm = zz00
at time    210910 ns WRITE: Bank = 0 Row =    0, Col = 273, Data =     5, Dqm = zz00
at time    210930 ns WRITE: Bank = 0 Row =    0, Col = 274, Data =     7, Dqm = zz00
at time    210950 ns WRITE: Bank = 0 Row =    0, Col = 275, Data =     9, Dqm = zz00
at time    210970 ns WRITE: Bank = 0 Row =    0, Col = 276, Data =     3, Dqm = zz00
at time    210990 ns WRITE: Bank = 0 Row =    0, Col = 277, Data =     5, Dqm = zz00
at time    211010 ns WRITE: Bank = 0 Row =    0, Col = 278, Data =     7, Dqm = zz00
at time    211030 ns WRITE: Bank = 0 Row =    0, Col = 279, Data =     9, Dqm = zz00
at time    211050 ns WRITE: Bank = 0 Row =    0, Col = 280, Data =     3, Dqm = zz00
at time    211070 ns WRITE: Bank = 0 Row =    0, Col = 281, Data =     5, Dqm = zz00
at time    211090 ns WRITE: Bank = 0 Row =    0, Col = 282, Data =     7, Dqm = zz00
at time    211110 ns WRITE: Bank = 0 Row =    0, Col = 283, Data =     9, Dqm = zz00
at time    211130 ns WRITE: Bank = 0 Row =    0, Col = 284, Data =     3, Dqm = zz00
at time    211150 ns WRITE: Bank = 0 Row =    0, Col = 285, Data =     5, Dqm = zz00
at time    211170 ns WRITE: Bank = 0 Row =    0, Col = 286, Data =     7, Dqm = zz00
at time    211190 ns WRITE: Bank = 0 Row =    0, Col = 287, Data =     9, Dqm = zz00
at time    211210 ns WRITE: Bank = 0 Row =    0, Col = 288, Data =     3, Dqm = zz00
at time    211230 ns WRITE: Bank = 0 Row =    0, Col = 289, Data =     5, Dqm = zz00
at time    211250 ns WRITE: Bank = 0 Row =    0, Col = 290, Data =     7, Dqm = zz00
at time    211270 ns WRITE: Bank = 0 Row =    0, Col = 291, Data =     9, Dqm = zz00
at time    211290 ns WRITE: Bank = 0 Row =    0, Col = 292, Data =     3, Dqm = zz00
at time    211310 ns WRITE: Bank = 0 Row =    0, Col = 293, Data =     5, Dqm = zz00
at time    211330 ns WRITE: Bank = 0 Row =    0, Col = 294, Data =     7, Dqm = zz00
at time    211350 ns WRITE: Bank = 0 Row =    0, Col = 295, Data =     9, Dqm = zz00
at time    211370 ns WRITE: Bank = 0 Row =    0, Col = 296, Data =     3, Dqm = zz00
at time    211390 ns WRITE: Bank = 0 Row =    0, Col = 297, Data =     5, Dqm = zz00
at time    211410 ns WRITE: Bank = 0 Row =    0, Col = 298, Data =     7, Dqm = zz00
at time    211430 ns WRITE: Bank = 0 Row =    0, Col = 299, Data =     9, Dqm = zz00
at time    211450 ns WRITE: Bank = 0 Row =    0, Col = 300, Data =     3, Dqm = zz00
at time    211470 ns WRITE: Bank = 0 Row =    0, Col = 301, Data =     5, Dqm = zz00
at time    211490 ns WRITE: Bank = 0 Row =    0, Col = 302, Data =     7, Dqm = zz00
at time    211510 ns WRITE: Bank = 0 Row =    0, Col = 303, Data =     9, Dqm = zz00
at time    211530 ns WRITE: Bank = 0 Row =    0, Col = 304, Data =     3, Dqm = zz00
at time    211550 ns WRITE: Bank = 0 Row =    0, Col = 305, Data =     5, Dqm = zz00
at time    211570 ns WRITE: Bank = 0 Row =    0, Col = 306, Data =     7, Dqm = zz00
at time    211590 ns WRITE: Bank = 0 Row =    0, Col = 307, Data =     9, Dqm = zz00
at time    211610 ns WRITE: Bank = 0 Row =    0, Col = 308, Data =     3, Dqm = zz00
at time    211630 ns WRITE: Bank = 0 Row =    0, Col = 309, Data =     5, Dqm = zz00
at time    211650 ns WRITE: Bank = 0 Row =    0, Col = 310, Data =     7, Dqm = zz00
at time    211670 ns WRITE: Bank = 0 Row =    0, Col = 311, Data =     9, Dqm = zz00
